{
    "builders": [{
        "type": "openstack",
        "ssh_username": "ubuntu",
        "source_image_name": "{{OS_IMAGE_NAME}}",
        "image_name": "{{PACKER_OUTPUT_IMAGE_NAME}}",
        "flavor": "{{OS_FLAVOR_NAME}}",
        "ssh_keypair_name": "{{OS_KEYPAIR_NAME}}",
        "ssh_private_key_file": "{{OS_PRIVATE_KEY_FILE}}",
        "security_groups": ["{{OS_SECURITY_GROUP}}"],
        "floating_ip_pool": "public-net",
        "user_data_file": "{{PACKER_TMP_DIR}}/userdata.txt",
        "networks": ["{{OS_NETWORK_ID}}"]
    }],
    "provisioners": [{
        "type": "shell",
        "script": "{{PACKER_TMP_DIR}}/provision.txt"
    }]
}
